%YAML 1.1
%TAG !u! tag:unity3d.com,2011:
--- !u!114 &11400000
MonoBehaviour:
  m_ObjectHideFlags: 0
  m_PrefabParentObject: {fileID: 0}
  m_PrefabInternal: {fileID: 0}
  m_GameObject: {fileID: 0}
  m_Enabled: 1
  m_EditorHideFlags: 0
  m_Script: {fileID: 2108210716, guid: 89f0137620f6af44b9ba852b4190e64e, type: 3}
  m_Name: New TMP Color Gradient
  m_EditorClassIdentifier: 
  topLeft: {r: 0.9558824, g: 0.6811389, b: 0.18977077, a: 1}
  topRight: {r: 0.9411765, g: 0.6185419, b: 0.041522477, a: 1}
  bottomLeft: {r: 0.99264705, g: 0.5577348, b: 0.007298882, a: 1}
  bottomRight: {r: 0.9264706, g: 0.4792089, b: 0, a: 1}
