%YAML 1.1
%TAG !u! tag:unity3d.com,2011:
--- !u!1045 &1
EditorBuildSettings:
  m_ObjectHideFlags: 0
  serializedVersion: 2
  m_Scenes:
  - enabled: 1
    path: Assets/Scenes/Menu.unity
    guid: 82301d6a55808c94191041e8f1da2b8b
  - enabled: 1
    path: Assets/Scenes/Level_Intro.unity
    guid: 3b460ae4de9b13e4685c0cbfe3f3671f
  - enabled: 1
    path: Assets/Scenes/ForestTest.unity
    guid: 70d9fe42c0721fb49b38400e62b7320b
